{
  "type": "service_account",
  "project_id": "tallyfy-364a0",
  "private_key_id": "5554eb186a994e0e0f33cccdc79af6121843e82f",
  "private_key": "-----BEGIN PRIVATE KEY-----\nMIIEvgIBADANBgkqhkiG9w0BAQEFAASCBKgwggSkAgEAAoIBAQC+XfR1apb18ZBo\nv4jP5qAuqq9PDkPJegawsuIbVsd76mTBiZY7Uw3++VX+vjXZuGgrvZAuTEexGJCz\nUdALDQO9LqEf8ZElVSXmADEaf1uefSVh0jCGDgWEvCw5+TdjzxEIPeIejD55Bm0+\nukUMYmTtp6LDagFoxdrt4zpCOKNqPKWEqpn9bKYujoMS3tBnAudfxKp/W3GWynn3\nZ6HtHxZ1dfk+vRDrk5reGqUpV5IkFIj9WnpEYQPiUkXvnWdwptrNMeSiU+tO69ut\nITxDOWknVkXbfBIt5Wft+CYsFA3BG7VZPonzVkG09oZ6iO3fCKGKs73m7cdUvQs8\nvQL+oyJXAgMBAAECggEABThETLfofcPq5sRhtvmm6MCrX+qPN0YOSugMxR0jCSXL\nL3dbVDMZziT+E6cZiOfCi3h+LJbQ3G1FAnW606K+uIA/0MVp6nEkQeM9dXGKjJT3\n4m/F/tcBlbsnJ0vLFgSGfghcW+QSjnT7p92pqQZFqDKRhvQwJ7RNJXq2jTxKVs5Y\ntnWktazspgfvl6CLM1OHtosctGZjwniGPO1UCj7/5MkyQ4Jq1XUeJYIKTTZi/wmJ\nIE0y3txDxKiMXAE1nmZ2vxtz34o4+Fk/KaSfzSip+Dg2VdcMy5CkF2XlFN68N9GK\ntPHZaaV/tPqAar8D70pGdAfTWkYiPmWZthtYIgZUgQKBgQD4jliBnd8MEN+6DSOZ\nQlXqKR9aP5RtzKhSBqUk50I9cg7e+QY4BYlXYygy+CwZ4EiCxVNhx9qBKOf+kUss\nsJPEO/qY0TFjqaykzzKBvrPL0XKzDkSOs4l/YjbCdzkO4R6ulD5eIX2ZOKmT0ci0\nF93N5QYeNFIaJMmn3PGaWs7HwQKBgQDEEXrQhzWECoKIsWA1T08+vANNLz0XU5EH\n9xb4vQ9mphQvHQQnaWURGlUynnsTM1adP9EUNEd0NFAQTNwvH8ux6Mzhr4AyFp0q\nNCam455iX7FZPZAIcpqju3s7I5KdEZk61ygCSxeTMOjihqQ05A6DipI3i6W3p1qn\n8GIYz1swFwKBgQDLYOYowP32SIRYH1ImoHHeVWGzHd0c7t43p/pPNO8tifuDFS6y\nfk0/9QG6mviy/6M1ZbLxim9PSiJyWX6yhZWTdyR5EIsiKn76qBOCuIEz4CDDRIRy\nY5O5aKq3+of0ld3eKazSpwK3cfbH3lskiXbTd3fHFTas77cVpKMIkw8pwQKBgCib\nSilH53B6UMCIo9lGnK3seG6S2v8qwn240dwgI8FpogKD6ulSrajWIFEEe47lcgnN\nPrsFfMr3TqGhmXR1DFXDVjNjipRVFKW5+UtVFude1DccRelJ+vbwDDyaSHIZQ/fo\nuZOIA9DrL0BDDF0b4lmh6FhyppabpW3knhxvTX5vAoGBAObsenRGQCXy3lEuRK5c\n4qkmp47AzLVZc8DWHeeG4nzTnMdMJ6DZ6u0W4C3g3HuDcIzNaoJmqYdaG7peKS/4\nUVzLVzKOW4k7JKlRao+qlq0yMXQzJgg7AYkpnIuW1mYQx8wXQzS6THYYp4e2kRF9\nB9adQ07H4ZaVyO61vwQGNpx5\n-----END PRIVATE KEY-----\n",
  "client_email": "firebase-adminsdk-c70fu@tallyfy-364a0.iam.gserviceaccount.com",
  "client_id": "106363787951928874143",
  "auth_uri": "https://accounts.google.com/o/oauth2/auth",
  "token_uri": "https://oauth2.googleapis.com/token",
  "auth_provider_x509_cert_url": "https://www.googleapis.com/oauth2/v1/certs",
  "client_x509_cert_url": "https://www.googleapis.com/robot/v1/metadata/x509/firebase-adminsdk-c70fu%40tallyfy-364a0.iam.gserviceaccount.com"
}
